{
  "project_info": {
    "project_number": "927552755125",
    "firebase_url": "https://robo-lending.firebaseio.com",
    "project_id": "robo-lending",
    "storage_bucket": "robo-lending.appspot.com"
  },
  "client": [
    {
      "client_info": {
        "mobilesdk_app_id": "1:927552755125:android:b4ebf45632c8f6ce",
        "android_client_info": {
          "package_name": "com.kuliza.lendin"
        }
      },
      "oauth_client": [
        {
          "client_id": "927552755125-u28qrcge759b9umc9ll3l8dlg0opr97f.apps.googleusercontent.com",
          "client_type": 3
        },
        {
          "client_id": "927552755125-u28qrcge759b9umc9ll3l8dlg0opr97f.apps.googleusercontent.com",
          "client_type": 3
        }
      ],
      "api_key": [
        {
          "current_key": "AIzaSyAMkEJlAXwITCKqQk4sGivh3LJqMEz-1nQ"
        }
      ],
      "services": {
        "analytics_service": {
          "status": 1
        },
        "appinvite_service": {
          "status": 1,
          "other_platform_oauth_client": []
        },
        "ads_service": {
          "status": 2
        }
      }
    }
  ],
  "configuration_version": "1"
}